module gitlab.com/gocor/corsqs

go 1.16

require (
	github.com/aws/aws-sdk-go v1.40.46
	github.com/google/uuid v1.3.0
	github.com/jpillora/backoff v1.0.0
	gitlab.com/gocor/corctx v1.0.0
	gitlab.com/gocor/corlog v1.0.0
)
